\relax 
\providecommand\hyper@newdestlabel[2]{}
\providecommand\HyperFirstAtBeginDocument{\AtBeginDocument}
\HyperFirstAtBeginDocument{\ifx\hyper@anchor\@undefined
\global\let\oldcontentsline\contentsline
\gdef\contentsline#1#2#3#4{\oldcontentsline{#1}{#2}{#3}}
\global\let\oldnewlabel\newlabel
\gdef\newlabel#1#2{\newlabelxx{#1}#2}
\gdef\newlabelxx#1#2#3#4#5#6{\oldnewlabel{#1}{{#2}{#3}}}
\AtEndDocument{\ifx\hyper@anchor\@undefined
\let\contentsline\oldcontentsline
\let\newlabel\oldnewlabel
\fi}
\fi}
\global\let\hyper@last\relax 
\gdef\HyperFirstAtBeginDocument#1{#1}
\providecommand\HyField@AuxAddToFields[1]{}
\providecommand\HyField@AuxAddToCoFields[2]{}
\bibstyle{alphadin}
\@input{latex_einstellungen/deckblatt.aux}
\@input{erklaerung.aux}
\@writefile{toc}{\contentsline {section}{Eidesstattliche Erkl\IeC {\"a}rung}{1}{Doc-Start}}
\@input{abstract.aux}
\@writefile{toc}{\contentsline {section}{Abbildungsverzeichnis}{3}{section*.3}}
\@writefile{toc}{\contentsline {section}{Tabellenverzeichnis}{3}{section*.4}}
\@writefile{toc}{\contentsline {section}{Listingverzeichnis}{3}{section*.5}}
\@writefile{toc}{\contentsline {section}{\numberline {1}Einleitung}{4}{section.1}}
\newlabel{einleitung}{{1}{4}{Einleitung}{section.1}{}}
\@writefile{toc}{\contentsline {section}{\numberline {2}Kapitel 1}{4}{section.2}}
\newlabel{kapitel1}{{2}{4}{Kapitel 1}{section.2}{}}
\@writefile{toc}{\contentsline {section}{\numberline {3}Kapitel 2}{4}{section.3}}
\newlabel{kapitel2}{{3}{4}{Kapitel 2}{section.3}{}}
\@writefile{toc}{\contentsline {section}{\numberline {4}Ausblick}{4}{section.4}}
\newlabel{ausblick}{{4}{4}{Ausblick}{section.4}{}}
\@writefile{toc}{\contentsline {section}{\numberline {5}Fazit}{4}{section.5}}
\newlabel{fazit}{{5}{4}{Fazit}{section.5}{}}
\@writefile{lof}{\contentsline {figure}{\numberline {1}{\ignorespaces Beschreibung}}{4}{figure.1}}
\newlabel{fig:Beschreibung}{{1}{4}{Beschreibung}{figure.1}{}}
\newlabel{lst:dataconfigxml}{{1}{4}{Die Datei {\tt data-config.xml} dient als Beispiel für XML Quellcode}{lstlisting.1}{}}
\@writefile{lol}{\contentsline {lstlisting}{\numberline {1}Die Datei {\tt  data-config.xml} dient als Beispiel f\IeC {\"u}r XML Quellcode}{4}{lstlisting.1}}
\citation{wk05}
\citation{wk05}
\newlabel{lst:result2}{{2}{5}{Das Listing zeigt Java Quellcode}{lstlisting.2}{}}
\@writefile{lol}{\contentsline {lstlisting}{\numberline {2}Das Listing zeigt Java Quellcode}{5}{lstlisting.2}}
\bibdata{Hauptdatei}
\@writefile{toc}{\contentsline {section}{Literaturverzeichnis}{6}{lstnumber.2.33}}
\@writefile{toc}{\contentsline {section}{Anhang}{7}{section*.7}}
\newlabel{anhang}{{5}{7}{Anhang}{section*.8}{}}
