\contentsline {section}{Eidesstattliche Erkl\IeC {\"a}rung}{1}{Doc-Start}
\contentsline {section}{Abbildungsverzeichnis}{3}{section*.3}
\contentsline {section}{Tabellenverzeichnis}{3}{section*.4}
\contentsline {section}{Listingverzeichnis}{3}{section*.5}
\contentsline {section}{\numberline {1}Einleitung}{4}{section.1}
\contentsline {section}{\numberline {2}Kapitel 1}{4}{section.2}
\contentsline {section}{\numberline {3}Kapitel 2}{4}{section.3}
\contentsline {section}{\numberline {4}Ausblick}{4}{section.4}
\contentsline {section}{\numberline {5}Fazit}{4}{section.5}
\contentsline {section}{Literaturverzeichnis}{6}{lstnumber.2.33}
\contentsline {section}{Anhang}{7}{section*.7}
